<?xml version="1.0" encoding="iso-8859-1"?>
<!-- Generator: Adobe Illustrator 21.0.0, SVG Export Plug-In . SVG Version: 6.00 Build 0)  -->
<svg xmlns="http://www.w3.org/2000/svg" xmlns:xlink="http://www.w3.org/1999/xlink" version="1.1" id="Capa_1" x="0px" y="0px" viewBox="0 0 512 512" style="enable-background:new 0 0 512 512;" xml:space="preserve" width="512" height="512">
<g id="_x3C_Group_x3E__15_">
	<g>
		<path d="M273.066,503.709l-47.786-90.971l-83.188,36.973c-4.468,1.978-9.653,1.67-13.813-0.85    c-4.189-2.52-6.899-6.914-7.236-11.792l-30-421c-0.454-6.24,3.032-12.114,8.73-14.707c5.713-2.622,12.437-1.377,16.831,3.032    l300,301c3.501,3.486,5.039,8.481,4.146,13.345c-0.908,4.863-4.146,8.965-8.657,10.972l-77.036,34.233l45.355,86.093    c3.706,7.412,0.703,16.421-6.709,20.127l-80.508,40.254C285.706,514.136,276.752,511.06,273.066,503.709z"/>
	</g>
</g>















</svg>
