<?xml version="1.0" encoding="iso-8859-1"?>
<!-- Generator: Adobe Illustrator 21.0.0, SVG Export Plug-In . SVG Version: 6.00 Build 0)  -->
<svg xmlns="http://www.w3.org/2000/svg" xmlns:xlink="http://www.w3.org/1999/xlink" version="1.1" id="Capa_1" x="0px" y="0px" viewBox="0 0 512 512" style="enable-background:new 0 0 512 512;" xml:space="preserve" width="512" height="512">
<g id="_x3C_Group_x3E__34_">
	<g>
		<g>
			<path d="M256,210c-57.891,0-105-47.109-105-105S198.109,0,256,0s105,47.109,105,105S313.891,210,256,210z"/>
		</g>
	</g>
	<g>
		<g>
			<path d="M268.861,504.72c-2.71,4.512-7.588,7.28-12.861,7.28s-10.151-2.769-12.861-7.28l-90-151     c-2.783-4.644-2.856-10.415-0.19-15.117S160.595,331,166,331h45v-75c0-8.291,6.709-15,15-15h60c8.291,0,15,6.709,15,15v75h45     c5.405,0,10.386,2.9,13.052,7.603s2.593,10.474-0.19,15.117L268.861,504.72z"/>
		</g>
	</g>
</g>















</svg>
