<?xml version="1.0" encoding="iso-8859-1"?>
<!-- Generator: Adobe Illustrator 21.0.0, SVG Export Plug-In . SVG Version: 6.00 Build 0)  -->
<svg xmlns="http://www.w3.org/2000/svg" xmlns:xlink="http://www.w3.org/1999/xlink" version="1.1" id="Capa_1" x="0px" y="0px" viewBox="0 0 511.663 511.663" style="enable-background:new 0 0 511.663 511.663;" xml:space="preserve" width="512" height="512">
<g id="_x3C_Group_x3E__33_">
	<g>
		<path d="M255.832,330.663c-41.353,0-75-33.647-75-75s33.647-75,75-75s75,33.647,75,75S297.184,330.663,255.832,330.663z"/>
	</g>
	<g>
		<path d="M345.832,149.663h-180c-5.684,0-10.869-3.208-13.418-8.291c-2.534-5.083-1.992-11.162,1.421-15.703l90-120    c5.654-7.559,18.34-7.559,23.994,0l90,120c3.413,4.541,3.955,10.62,1.421,15.703C356.701,146.455,351.515,149.663,345.832,149.663    z"/>
	</g>
	<g>
		<path d="M255.832,511.663c-4.717,0-9.17-2.227-11.997-6.006l-90-120c-3.413-4.541-3.955-10.62-1.421-15.703    c2.549-5.083,7.734-8.291,13.418-8.291h180c5.684,0,10.869,3.208,13.418,8.291c2.534,5.083,1.992,11.162-1.421,15.703l-90,120    C265.001,509.437,260.548,511.663,255.832,511.663z"/>
	</g>
</g>















</svg>
