{
  "replace": [
    { "regex": [
        "'add-bookmark',",
        "'zoom'"
      ],
      "replaceWith": [
        "'add-bookmark',",
        "  'add-botbar-item',",
        "  'zoom'"
      ]
    }
  ]
}